EESchema Schematic File Version 4
EELAYER 30 0
EELAYER END
$Descr A3 16535 11693
encoding utf-8
Sheet 1 1
Title "Z20X Dazzler GD3X display board"
Date "2021-10-08"
Rev "1.0.1"
Comp "Cocoacrumbs"
Comment1 ""
Comment2 ""
Comment3 ""
Comment4 ""
$EndDescr
$Comp
L Dazzler_GD3X:Dazzler-GD3X U1
U 1 1 6123CEF6
P 8850 7500
F 0 "U1" H 9128 8196 50  0000 L CNN
F 1 "Dazzler-GD3X" H 9128 8105 50  0000 L CNN
F 2 "Z20X-Dazzler-GD3X:Dazzler_GD3X" H 8850 7500 50  0001 C CNN
F 3 "" H 8850 7500 50  0001 C CNN
	1    8850 7500
	1    0    0    -1  
$EndComp
$Comp
L Connector_Generic:Conn_02x20_Odd_Even J2
U 1 1 612428DD
P 1750 6700
F 0 "J2" H 1800 7817 50  0000 C CNN
F 1 "SSD1963 connector" H 1800 7726 50  0000 C CNN
F 2 "Connector_PinHeader_2.54mm:PinHeader_2x20_P2.54mm_Vertical" H 1750 6700 50  0001 C CNN
F 3 "~" H 1750 6700 50  0001 C CNN
	1    1750 6700
	1    0    0    -1  
$EndComp
$Comp
L Connector_Generic:Conn_02x03_Odd_Even J1
U 1 1 6124626C
P 1750 1850
F 0 "J1" H 1800 2167 50  0000 C CNN
F 1 "UART0 - Z20X" H 1800 2076 50  0000 C CNN
F 2 "Z20X-Dazzler-GD3X:Z20X_PinHeader_2x03_P2.54mm_Vertical" H 1750 1850 50  0001 C CNN
F 3 "~" H 1750 1850 50  0001 C CNN
	1    1750 1850
	1    0    0    -1  
$EndComp
$Comp
L Dazzler_GD3X:Wii_controller U3
U 1 1 612477D9
P 12250 7300
F 0 "U3" H 12425 7465 50  0000 C CNN
F 1 "Wii_controller_2" H 12425 7374 50  0000 C CNN
F 2 "Z20X-Dazzler-GD3X:Wii_connector" H 12250 7300 50  0001 C CNN
F 3 "" H 12250 7300 50  0001 C CNN
	1    12250 7300
	1    0    0    -1  
$EndComp
$Comp
L Dazzler_GD3X:Wii_controller U2
U 1 1 6124BEE2
P 12250 5700
F 0 "U2" H 12425 5865 50  0000 C CNN
F 1 "Wii_controller_1" H 12425 5774 50  0000 C CNN
F 2 "Z20X-Dazzler-GD3X:Wii_connector" H 12250 5700 50  0001 C CNN
F 3 "" H 12250 5700 50  0001 C CNN
	1    12250 5700
	1    0    0    -1  
$EndComp
$Comp
L Connector_Generic:Conn_02x36_Odd_Even J4
U 1 1 612502AF
P 4850 7500
F 0 "J4" H 4900 9417 50  0000 C CNN
F 1 "Z20X Expansion Bus" H 4900 9326 50  0000 C CNN
F 2 "Z20X-Dazzler-GD3X:Z20X_PinHeader_2x36_P2.54mm_Vertical" H 4850 7500 50  0001 C CNN
F 3 "~" H 4850 7500 50  0001 C CNN
	1    4850 7500
	1    0    0    -1  
$EndComp
$Comp
L Connector_Generic:Conn_01x08 J9
U 1 1 61267650
P 12350 3700
F 0 "J9" V 12222 3212 50  0000 R CNN
F 1 "External SD Card Connector" V 12450 4200 50  0000 R CNN
F 2 "Connector_PinHeader_2.54mm:PinHeader_1x08_P2.54mm_Vertical" H 12350 3700 50  0001 C CNN
F 3 "~" H 12350 3700 50  0001 C CNN
	1    12350 3700
	0    -1   1    0   
$EndComp
$Comp
L microSD:045138008100858+ J10
U 1 1 61268190
P 12900 2250
F 0 "J10" H 13550 2515 50  0000 C CNN
F 1 "Micro SD Card" H 13550 2424 50  0000 C CNN
F 2 "Z20X-Dazzler-GD3X:kyocera_SOFNG-TF15-015_hybrid_microSD_045138008100858" H 14050 2350 50  0001 L CNN
F 3 "https://www.mouser.sg/datasheet/2/909/5138-1359342.pdf" H 14050 2250 50  0001 L CNN
F 4 "Memory Card Connectors MICRO SD CARD 5138 SERIES" H 14050 2150 50  0001 L CNN "Description"
F 5 "1.4" H 14050 2050 50  0001 L CNN "Height"
F 6 "581-045138008100858+" H 14050 1950 50  0001 L CNN "Mouser Part Number"
F 7 "https://www.mouser.com/Search/Refine.aspx?Keyword=581-045138008100858%2B" H 14050 1850 50  0001 L CNN "Mouser Price/Stock"
F 8 "AVX" H 14050 1750 50  0001 L CNN "Manufacturer_Name"
F 9 "045138008100858+" H 14050 1650 50  0001 L CNN "Manufacturer_Part_Number"
	1    12900 2250
	1    0    0    -1  
$EndComp
$Comp
L power:GND #PWR04
U 1 1 612716F5
P 1550 1850
F 0 "#PWR04" H 1550 1600 50  0001 C CNN
F 1 "GND" V 1555 1722 50  0000 R CNN
F 2 "" H 1550 1850 50  0001 C CNN
F 3 "" H 1550 1850 50  0001 C CNN
	1    1550 1850
	0    1    1    0   
$EndComp
$Comp
L power:GND #PWR05
U 1 1 61271AEB
P 1550 1950
F 0 "#PWR05" H 1550 1700 50  0001 C CNN
F 1 "GND" V 1555 1822 50  0000 R CNN
F 2 "" H 1550 1950 50  0001 C CNN
F 3 "" H 1550 1950 50  0001 C CNN
	1    1550 1950
	0    1    1    0   
$EndComp
$Comp
L power:+3V3 #PWR03
U 1 1 61271DD5
P 1550 1750
F 0 "#PWR03" H 1550 1600 50  0001 C CNN
F 1 "+3V3" V 1565 1878 50  0000 L CNN
F 2 "" H 1550 1750 50  0001 C CNN
F 3 "" H 1550 1750 50  0001 C CNN
	1    1550 1750
	0    -1   -1   0   
$EndComp
Text GLabel 5050 1800 2    50   Output ~ 0
RX-GD3X
Text GLabel 5050 1700 2    50   Input ~ 0
TX-GD3X
Text Notes 900  1400 0    50   ~ 0
This 6 pins connector connects to the new \n(v1.4 and higher) 6 pins connector on the \nZ20X computer main board.
Text Notes 8050 1250 0    50   ~ 0
Pullup resistors
$Comp
L Connector_Generic:Conn_02x03_Odd_Even J3
U 1 1 6127E8B7
P 4450 1800
F 0 "J3" H 4500 2117 50  0000 C CNN
F 1 "Switchboard" H 4500 2026 50  0000 C CNN
F 2 "Connector_PinHeader_2.54mm:PinHeader_2x03_P2.54mm_Vertical" H 4450 1800 50  0001 C CNN
F 3 "~" H 4450 1800 50  0001 C CNN
	1    4450 1800
	1    0    0    -1  
$EndComp
Text GLabel 4250 1700 0    50   Output ~ 0
Tx
Text GLabel 2050 1850 2    50   Input ~ 0
Tx
Text Notes 4250 1250 0    50   ~ 0
Switchboard
Text GLabel 4250 1800 0    50   Input ~ 0
Rx
Text GLabel 2050 1950 2    50   Output ~ 0
Rx
$Comp
L Device:R R5
U 1 1 612858A2
P 4900 1700
F 0 "R5" V 4800 1700 50  0000 C CNN
F 1 "2K2" V 4900 1700 50  0000 C CNN
F 2 "Resistor_THT:R_Axial_DIN0207_L6.3mm_D2.5mm_P10.16mm_Horizontal" V 4830 1700 50  0001 C CNN
F 3 "~" H 4900 1700 50  0001 C CNN
	1    4900 1700
	0    1    1    0   
$EndComp
$Comp
L Device:R R6
U 1 1 6128C125
P 4900 1800
F 0 "R6" V 4950 1650 50  0000 C CNN
F 1 "2K2" V 4900 1800 50  0000 C CNN
F 2 "Resistor_THT:R_Axial_DIN0207_L6.3mm_D2.5mm_P10.16mm_Horizontal" V 4830 1800 50  0001 C CNN
F 3 "~" H 4900 1800 50  0001 C CNN
	1    4900 1800
	0    1    1    0   
$EndComp
$Comp
L power:+3V3 #PWR028
U 1 1 612909EB
P 8550 1550
F 0 "#PWR028" H 8550 1400 50  0001 C CNN
F 1 "+3V3" V 8565 1678 50  0000 L CNN
F 2 "" H 8550 1550 50  0001 C CNN
F 3 "" H 8550 1550 50  0001 C CNN
	1    8550 1550
	0    1    1    0   
$EndComp
Text GLabel 8250 1550 0    50   Input ~ 0
RESET-GD3X
$Comp
L Device:R R7
U 1 1 6127494B
P 8400 1550
F 0 "R7" V 8300 1550 50  0000 C CNN
F 1 "10K" V 8400 1550 50  0000 C CNN
F 2 "Resistor_THT:R_Axial_DIN0207_L6.3mm_D2.5mm_P10.16mm_Horizontal" V 8330 1550 50  0001 C CNN
F 3 "~" H 8400 1550 50  0001 C CNN
	1    8400 1550
	0    1    1    0   
$EndComp
$Comp
L power:GND #PWR06
U 1 1 6129C62C
P 1550 5800
F 0 "#PWR06" H 1550 5550 50  0001 C CNN
F 1 "GND" V 1555 5672 50  0000 R CNN
F 2 "" H 1550 5800 50  0001 C CNN
F 3 "" H 1550 5800 50  0001 C CNN
	1    1550 5800
	0    1    1    0   
$EndComp
$Comp
L power:+5V #PWR07
U 1 1 6129E7FB
P 1550 7500
F 0 "#PWR07" H 1550 7350 50  0001 C CNN
F 1 "+5V" V 1565 7628 50  0000 L CNN
F 2 "" H 1550 7500 50  0001 C CNN
F 3 "" H 1550 7500 50  0001 C CNN
	1    1550 7500
	0    -1   -1   0   
$EndComp
Text GLabel 5050 1900 2    50   Output ~ 0
RESET-GD3X
Text GLabel 4250 1900 0    50   Input ~ 0
RESET
Wire Wire Line
	4750 1900 5050 1900
NoConn ~ 1550 6000
NoConn ~ 1550 7700
NoConn ~ 1550 7600
Text GLabel 1550 7400 0    50   Input ~ 0
RESET
NoConn ~ 2050 1750
NoConn ~ 1550 7200
NoConn ~ 1550 6400
NoConn ~ 1550 6500
NoConn ~ 1550 6600
NoConn ~ 1550 6700
NoConn ~ 1550 6800
NoConn ~ 1550 6900
NoConn ~ 1550 7000
NoConn ~ 1550 7100
NoConn ~ 1550 6300
NoConn ~ 1550 6200
NoConn ~ 1550 6100
NoConn ~ 2050 7700
NoConn ~ 2050 7600
Text GLabel 2050 6600 2    50   Output ~ 0
TP_GPU-CLK
Text GLabel 2050 6800 2    50   Output ~ 0
TP_GPU-DIN
Text GLabel 2050 7000 2    50   Input ~ 0
TP_GPU-DO
NoConn ~ 2050 7100
NoConn ~ 2050 6900
NoConn ~ 2050 5800
NoConn ~ 2050 5900
NoConn ~ 2050 6000
NoConn ~ 2050 6100
NoConn ~ 2050 6200
NoConn ~ 2050 6300
NoConn ~ 2050 6400
NoConn ~ 2050 6500
$Comp
L Device:R R8
U 1 1 612B96A1
P 8400 1800
F 0 "R8" V 8300 1800 50  0000 C CNN
F 1 "10K" V 8400 1800 50  0000 C CNN
F 2 "Resistor_THT:R_Axial_DIN0207_L6.3mm_D2.5mm_P10.16mm_Horizontal" V 8330 1800 50  0001 C CNN
F 3 "~" H 8400 1800 50  0001 C CNN
	1    8400 1800
	0    1    1    0   
$EndComp
$Comp
L power:+3V3 #PWR029
U 1 1 612B9D8D
P 8550 1800
F 0 "#PWR029" H 8550 1650 50  0001 C CNN
F 1 "+3V3" V 8565 1928 50  0000 L CNN
F 2 "" H 8550 1800 50  0001 C CNN
F 3 "" H 8550 1800 50  0001 C CNN
	1    8550 1800
	0    1    1    0   
$EndComp
Text GLabel 8250 1800 0    50   Input ~ 0
PB5-DAZZLER_CS
Text GLabel 5150 8400 2    50   Input ~ 0
PB5-DAZZLER_CS
$Comp
L Device:LED D1
U 1 1 612C6A73
P 1600 3150
F 0 "D1" H 1593 2895 50  0000 C CNN
F 1 "5V power" H 1593 2986 50  0000 C CNN
F 2 "LED_THT:LED_D3.0mm" H 1600 3150 50  0001 C CNN
F 3 "~" H 1600 3150 50  0001 C CNN
	1    1600 3150
	-1   0    0    1   
$EndComp
$Comp
L Device:LED D2
U 1 1 612C7685
P 1600 3600
F 0 "D2" H 1593 3345 50  0000 C CNN
F 1 "3V3 power" H 1593 3436 50  0000 C CNN
F 2 "LED_THT:LED_D3.0mm" H 1600 3600 50  0001 C CNN
F 3 "~" H 1600 3600 50  0001 C CNN
	1    1600 3600
	-1   0    0    1   
$EndComp
$Comp
L Device:R R1
U 1 1 612C8A8E
P 2000 3150
F 0 "R1" V 1900 3150 50  0000 C CNN
F 1 "470" V 2000 3150 50  0000 C CNN
F 2 "Resistor_THT:R_Axial_DIN0207_L6.3mm_D2.5mm_P10.16mm_Horizontal" V 1930 3150 50  0001 C CNN
F 3 "~" H 2000 3150 50  0001 C CNN
	1    2000 3150
	0    1    1    0   
$EndComp
$Comp
L Device:R R2
U 1 1 612C9519
P 2000 3600
F 0 "R2" V 1900 3600 50  0000 C CNN
F 1 "470" V 2000 3600 50  0000 C CNN
F 2 "Resistor_THT:R_Axial_DIN0207_L6.3mm_D2.5mm_P10.16mm_Horizontal" V 1930 3600 50  0001 C CNN
F 3 "~" H 2000 3600 50  0001 C CNN
	1    2000 3600
	0    1    1    0   
$EndComp
$Comp
L power:GND #PWR012
U 1 1 612CC55F
P 2150 3150
F 0 "#PWR012" H 2150 2900 50  0001 C CNN
F 1 "GND" V 2155 3022 50  0000 R CNN
F 2 "" H 2150 3150 50  0001 C CNN
F 3 "" H 2150 3150 50  0001 C CNN
	1    2150 3150
	0    -1   -1   0   
$EndComp
$Comp
L power:GND #PWR013
U 1 1 612CC9E1
P 2150 3600
F 0 "#PWR013" H 2150 3350 50  0001 C CNN
F 1 "GND" V 2155 3472 50  0000 R CNN
F 2 "" H 2150 3600 50  0001 C CNN
F 3 "" H 2150 3600 50  0001 C CNN
	1    2150 3600
	0    -1   -1   0   
$EndComp
$Comp
L power:+3V3 #PWR02
U 1 1 612CCFE2
P 1450 3600
F 0 "#PWR02" H 1450 3450 50  0001 C CNN
F 1 "+3V3" V 1465 3728 50  0000 L CNN
F 2 "" H 1450 3600 50  0001 C CNN
F 3 "" H 1450 3600 50  0001 C CNN
	1    1450 3600
	0    -1   -1   0   
$EndComp
$Comp
L power:+5V #PWR01
U 1 1 612CE53A
P 1450 3150
F 0 "#PWR01" H 1450 3000 50  0001 C CNN
F 1 "+5V" V 1465 3278 50  0000 L CNN
F 2 "" H 1450 3150 50  0001 C CNN
F 3 "" H 1450 3150 50  0001 C CNN
	1    1450 3150
	0    -1   -1   0   
$EndComp
Wire Wire Line
	1750 3150 1850 3150
Wire Wire Line
	1750 3600 1850 3600
Text Notes 2050 2800 2    50   ~ 0
Power indicators.
$Comp
L Connector_Generic:Conn_01x06 J6
U 1 1 612ECA37
P 5100 3700
F 0 "J6" H 5050 4000 50  0000 L CNN
F 1 "Optional TTL to USB convertor." H 4550 3250 50  0000 L CNN
F 2 "Connector_PinHeader_2.54mm:PinHeader_1x06_P2.54mm_Vertical" H 5100 3700 50  0001 C CNN
F 3 "~" H 5100 3700 50  0001 C CNN
	1    5100 3700
	1    0    0    -1  
$EndComp
$Comp
L power:GND #PWR021
U 1 1 612EF484
P 4900 3500
F 0 "#PWR021" H 4900 3250 50  0001 C CNN
F 1 "GND" V 4905 3372 50  0000 R CNN
F 2 "" H 4900 3500 50  0001 C CNN
F 3 "" H 4900 3500 50  0001 C CNN
	1    4900 3500
	0    1    1    0   
$EndComp
$Comp
L Connector_Generic:Conn_01x03 J5
U 1 1 612F72A1
P 5100 3100
F 0 "J5" H 5050 3300 50  0000 L CNN
F 1 "Optional power for TTL to USB convertor." H 5200 3100 50  0000 L CNN
F 2 "Connector_PinHeader_2.54mm:PinHeader_1x03_P2.54mm_Vertical" H 5100 3100 50  0001 C CNN
F 3 "~" H 5100 3100 50  0001 C CNN
	1    5100 3100
	1    0    0    -1  
$EndComp
$Comp
L Device:R R4
U 1 1 612F89F4
P 4300 4450
F 0 "R4" H 4370 4496 50  0000 L CNN
F 1 "100K" H 4370 4405 50  0000 L CNN
F 2 "Resistor_THT:R_Axial_DIN0207_L6.3mm_D2.5mm_P10.16mm_Horizontal" V 4230 4450 50  0001 C CNN
F 3 "~" H 4300 4450 50  0001 C CNN
	1    4300 4450
	1    0    0    -1  
$EndComp
$Comp
L Device:R R3
U 1 1 61302CB7
P 4300 3300
F 0 "R3" H 4370 3346 50  0000 L CNN
F 1 "100K" H 4370 3255 50  0000 L CNN
F 2 "Resistor_THT:R_Axial_DIN0207_L6.3mm_D2.5mm_P10.16mm_Horizontal" V 4230 3300 50  0001 C CNN
F 3 "~" H 4300 3300 50  0001 C CNN
	1    4300 3300
	1    0    0    -1  
$EndComp
Wire Wire Line
	4150 3600 4900 3600
Wire Wire Line
	4900 3100 4600 3100
Wire Wire Line
	4600 3100 4600 3700
Wire Wire Line
	4600 3700 4900 3700
Wire Wire Line
	4150 3700 4300 3700
Wire Wire Line
	4300 3450 4300 3700
Connection ~ 4300 3700
Wire Wire Line
	4300 3700 4450 3700
$Comp
L power:+3V3 #PWR019
U 1 1 61313EA7
P 4900 3000
F 0 "#PWR019" H 4900 2850 50  0001 C CNN
F 1 "+3V3" V 4915 3128 50  0000 L CNN
F 2 "" H 4900 3000 50  0001 C CNN
F 3 "" H 4900 3000 50  0001 C CNN
	1    4900 3000
	0    -1   -1   0   
$EndComp
$Comp
L power:+5V #PWR020
U 1 1 61314886
P 4900 3200
F 0 "#PWR020" H 4900 3050 50  0001 C CNN
F 1 "+5V" V 4915 3328 50  0000 L CNN
F 2 "" H 4900 3200 50  0001 C CNN
F 3 "" H 4900 3200 50  0001 C CNN
	1    4900 3200
	0    -1   -1   0   
$EndComp
Wire Wire Line
	4900 3900 4300 3900
Wire Wire Line
	4300 3900 4300 4050
Wire Wire Line
	4300 4050 4150 4050
Wire Wire Line
	4450 3700 4450 3800
Wire Wire Line
	4450 3800 4900 3800
Wire Wire Line
	4300 4300 4300 4150
$Comp
L power:GND #PWR014
U 1 1 61318811
P 4300 4600
F 0 "#PWR014" H 4300 4350 50  0001 C CNN
F 1 "GND" H 4305 4427 50  0000 C CNN
F 2 "" H 4300 4600 50  0001 C CNN
F 3 "" H 4300 4600 50  0001 C CNN
	1    4300 4600
	1    0    0    -1  
$EndComp
Wire Wire Line
	4450 4000 4450 4150
Wire Wire Line
	4450 4150 4300 4150
Wire Wire Line
	4450 4000 4900 4000
Wire Wire Line
	4300 3150 4300 3100
Wire Wire Line
	4300 3100 4600 3100
Connection ~ 4600 3100
Text Notes 5800 2800 2    50   ~ 0
Connector for an optional external TTL to USB convertor.
Text GLabel 4150 4050 0    50   Input ~ 0
TX-GD3X
Text GLabel 4150 3700 0    50   Output ~ 0
RX-GD3X
Text Notes 4250 4200 2    50   ~ 0
CTS
Text Notes 4100 3600 2    50   ~ 0
RTS
Text Notes 5200 4050 0    67   ~ 0
GND\nCTS\nVCC\nTXD\nRXD\nDTR
Text Notes 6100 3850 2    50   ~ 0
Pinout of the \nTTL serial to \nUSB convertor.
NoConn ~ 4150 3600
Text GLabel 8250 2050 0    50   Input ~ 0
SD-SEL_CS
Text GLabel 8250 2300 0    50   Input ~ 0
TP_GPU-SEL_CS
$Comp
L Device:R R9
U 1 1 61385B28
P 8400 2050
F 0 "R9" V 8300 2050 50  0000 C CNN
F 1 "10K" V 8400 2050 50  0000 C CNN
F 2 "Resistor_THT:R_Axial_DIN0207_L6.3mm_D2.5mm_P10.16mm_Horizontal" V 8330 2050 50  0001 C CNN
F 3 "~" H 8400 2050 50  0001 C CNN
	1    8400 2050
	0    1    1    0   
$EndComp
$Comp
L Device:R R10
U 1 1 61385DE0
P 8400 2300
F 0 "R10" V 8300 2300 50  0000 C CNN
F 1 "10K" V 8400 2300 50  0000 C CNN
F 2 "Resistor_THT:R_Axial_DIN0207_L6.3mm_D2.5mm_P10.16mm_Horizontal" V 8330 2300 50  0001 C CNN
F 3 "~" H 8400 2300 50  0001 C CNN
	1    8400 2300
	0    1    1    0   
$EndComp
$Comp
L power:+3V3 #PWR030
U 1 1 61388D6E
P 8550 2050
F 0 "#PWR030" H 8550 1900 50  0001 C CNN
F 1 "+3V3" V 8565 2178 50  0000 L CNN
F 2 "" H 8550 2050 50  0001 C CNN
F 3 "" H 8550 2050 50  0001 C CNN
	1    8550 2050
	0    1    1    0   
$EndComp
$Comp
L power:+3V3 #PWR031
U 1 1 613890BF
P 8550 2300
F 0 "#PWR031" H 8550 2150 50  0001 C CNN
F 1 "+3V3" V 8565 2428 50  0000 L CNN
F 2 "" H 8550 2300 50  0001 C CNN
F 3 "" H 8550 2300 50  0001 C CNN
	1    8550 2300
	0    1    1    0   
$EndComp
Text Notes 1200 5450 0    50   ~ 0
Connector for the SSD1963 display\nwhich this board replaces.
Text GLabel 8200 8000 3    50   Output ~ 0
RESET-GD3X
$Comp
L power:+3V3 #PWR034
U 1 1 613BE285
P 8800 8000
F 0 "#PWR034" H 8800 7850 50  0001 C CNN
F 1 "+3V3" H 8815 8173 50  0000 C CNN
F 2 "" H 8800 8000 50  0001 C CNN
F 3 "" H 8800 8000 50  0001 C CNN
	1    8800 8000
	-1   0    0    1   
$EndComp
$Comp
L power:GND #PWR035
U 1 1 613BEC32
P 8900 8250
F 0 "#PWR035" H 8900 8000 50  0001 C CNN
F 1 "GND" H 8905 8077 50  0000 C CNN
F 2 "" H 8900 8250 50  0001 C CNN
F 3 "" H 8900 8250 50  0001 C CNN
	1    8900 8250
	1    0    0    -1  
$EndComp
$Comp
L power:+5V #PWR036
U 1 1 613BF75A
P 9000 8000
F 0 "#PWR036" H 9000 7850 50  0001 C CNN
F 1 "+5V" H 9015 8173 50  0000 C CNN
F 2 "" H 9000 8000 50  0001 C CNN
F 3 "" H 9000 8000 50  0001 C CNN
	1    9000 8000
	-1   0    0    1   
$EndComp
Wire Wire Line
	8900 8000 8900 8250
Text GLabel 2050 7500 2    50   Output ~ 0
SD-SEL_CS
Text GLabel 7300 7200 0    50   Input ~ 0
TP_GPU-SEL_CS
Text GLabel 7300 7300 0    50   Input ~ 0
SD-SEL_CS
Text GLabel 7300 7400 0    50   Input ~ 0
PB5-DAZZLER_CS
Text GLabel 2050 6700 2    50   Output ~ 0
TP_GPU-SEL_CS
$Comp
L power:GND #PWR053
U 1 1 613E663D
P 14200 2450
F 0 "#PWR053" H 14200 2200 50  0001 C CNN
F 1 "GND" V 14205 2322 50  0000 R CNN
F 2 "" H 14200 2450 50  0001 C CNN
F 3 "" H 14200 2450 50  0001 C CNN
	1    14200 2450
	0    -1   -1   0   
$EndComp
$Comp
L power:GND #PWR054
U 1 1 613E6BDB
P 14200 2550
F 0 "#PWR054" H 14200 2300 50  0001 C CNN
F 1 "GND" V 14205 2422 50  0000 R CNN
F 2 "" H 14200 2550 50  0001 C CNN
F 3 "" H 14200 2550 50  0001 C CNN
	1    14200 2550
	0    -1   -1   0   
$EndComp
$Comp
L power:GND #PWR055
U 1 1 613E6F77
P 14200 2650
F 0 "#PWR055" H 14200 2400 50  0001 C CNN
F 1 "GND" V 14205 2522 50  0000 R CNN
F 2 "" H 14200 2650 50  0001 C CNN
F 3 "" H 14200 2650 50  0001 C CNN
	1    14200 2650
	0    -1   -1   0   
$EndComp
$Comp
L power:GND #PWR056
U 1 1 613E7293
P 14200 2750
F 0 "#PWR056" H 14200 2500 50  0001 C CNN
F 1 "GND" V 14205 2622 50  0000 R CNN
F 2 "" H 14200 2750 50  0001 C CNN
F 3 "" H 14200 2750 50  0001 C CNN
	1    14200 2750
	0    -1   -1   0   
$EndComp
Text GLabel 7300 6500 0    50   Output ~ 0
ONBOARD_SD_CLK
$Comp
L power:GND #PWR040
U 1 1 613EE64E
P 11900 2750
F 0 "#PWR040" H 11900 2500 50  0001 C CNN
F 1 "GND" V 11905 2622 50  0000 R CNN
F 2 "" H 11900 2750 50  0001 C CNN
F 3 "" H 11900 2750 50  0001 C CNN
	1    11900 2750
	0    1    1    0   
$EndComp
Wire Wire Line
	11900 2750 12050 2750
Connection ~ 12050 2750
Wire Wire Line
	12050 2750 12750 2750
$Comp
L power:+3V3 #PWR039
U 1 1 613EF961
P 11900 2550
F 0 "#PWR039" H 11900 2400 50  0001 C CNN
F 1 "+3V3" V 11915 2678 50  0000 L CNN
F 2 "" H 11900 2550 50  0001 C CNN
F 3 "" H 11900 2550 50  0001 C CNN
	1    11900 2550
	0    -1   -1   0   
$EndComp
Text GLabel 7300 6700 0    50   Output ~ 0
ONBOARD_SD_CS
Text GLabel 7300 6600 0    50   Output ~ 0
ONBOARD_SD_MOSI
Text GLabel 7300 6400 0    50   Input ~ 0
ONBOARD_SD_MISO
Connection ~ 12150 2850
Wire Wire Line
	12150 2850 12900 2850
Connection ~ 12250 2650
Wire Wire Line
	12250 2650 12900 2650
Wire Wire Line
	11900 2550 12900 2550
Wire Wire Line
	12350 2450 12900 2450
Wire Wire Line
	12450 2350 12900 2350
Connection ~ 12750 2750
Wire Wire Line
	12750 2750 12900 2750
$Comp
L power:+3V3 #PWR051
U 1 1 61413254
P 12650 3250
F 0 "#PWR051" H 12650 3100 50  0001 C CNN
F 1 "+3V3" H 12665 3423 50  0000 C CNN
F 2 "" H 12650 3250 50  0001 C CNN
F 3 "" H 12650 3250 50  0001 C CNN
	1    12650 3250
	1    0    0    -1  
$EndComp
$Comp
L power:+5V #PWR048
U 1 1 614176DC
P 12550 3500
F 0 "#PWR048" H 12550 3350 50  0001 C CNN
F 1 "+5V" H 12565 3673 50  0000 C CNN
F 2 "" H 12550 3500 50  0001 C CNN
F 3 "" H 12550 3500 50  0001 C CNN
	1    12550 3500
	1    0    0    -1  
$EndComp
Wire Wire Line
	12050 2750 12050 3500
Wire Wire Line
	12150 2850 12150 3500
Wire Wire Line
	12250 2650 12250 3500
Wire Wire Line
	12350 2450 12350 3500
Wire Wire Line
	12450 2350 12450 3500
Wire Wire Line
	12650 3250 12650 3500
Wire Wire Line
	12750 2750 12750 3500
Wire Wire Line
	11600 2650 11600 2750
Wire Wire Line
	11600 2650 12250 2650
Wire Wire Line
	11500 2450 12350 2450
Wire Wire Line
	11500 2450 11500 2650
Connection ~ 12350 2450
Wire Wire Line
	11400 2550 11400 2350
Wire Wire Line
	11400 2350 11550 2350
Connection ~ 12450 2350
$Comp
L Device:R R13
U 1 1 61490159
P 12750 1750
F 0 "R13" H 12820 1796 50  0000 L CNN
F 1 "100K" H 12820 1705 50  0000 L CNN
F 2 "Resistor_THT:R_Axial_DIN0207_L6.3mm_D2.5mm_P10.16mm_Horizontal" V 12680 1750 50  0001 C CNN
F 3 "~" H 12750 1750 50  0001 C CNN
	1    12750 1750
	1    0    0    -1  
$EndComp
$Comp
L Device:R R12
U 1 1 61493D1F
P 12150 1750
F 0 "R12" H 12220 1796 50  0000 L CNN
F 1 "100K" H 12220 1705 50  0000 L CNN
F 2 "Resistor_THT:R_Axial_DIN0207_L6.3mm_D2.5mm_P10.16mm_Horizontal" V 12080 1750 50  0001 C CNN
F 3 "~" H 12150 1750 50  0001 C CNN
	1    12150 1750
	1    0    0    -1  
$EndComp
Wire Wire Line
	12150 1900 12150 2850
Wire Wire Line
	12750 1900 12750 2250
Wire Wire Line
	12750 2250 12900 2250
$Comp
L Device:R R14
U 1 1 6149745C
P 14350 1800
F 0 "R14" H 14420 1846 50  0000 L CNN
F 1 "100K" H 14420 1755 50  0000 L CNN
F 2 "Resistor_THT:R_Axial_DIN0207_L6.3mm_D2.5mm_P10.16mm_Horizontal" V 14280 1800 50  0001 C CNN
F 3 "~" H 14350 1800 50  0001 C CNN
	1    14350 1800
	1    0    0    -1  
$EndComp
Wire Wire Line
	14200 2250 14350 2250
Wire Wire Line
	14350 2250 14350 1950
NoConn ~ 14200 2350
NoConn ~ 14200 2850
Text Notes 11350 1350 0    50   ~ 0
The onboard SD card can be controlled by either the Dazzler \nGD3X or the Z20X computer by using the correct jumpers.
$Comp
L power:+3V3 #PWR045
U 1 1 614C0658
P 12150 1600
F 0 "#PWR045" H 12150 1450 50  0001 C CNN
F 1 "+3V3" H 12165 1773 50  0000 C CNN
F 2 "" H 12150 1600 50  0001 C CNN
F 3 "" H 12150 1600 50  0001 C CNN
	1    12150 1600
	1    0    0    -1  
$EndComp
$Comp
L power:+3V3 #PWR052
U 1 1 614C1598
P 12750 1600
F 0 "#PWR052" H 12750 1450 50  0001 C CNN
F 1 "+3V3" H 12765 1773 50  0000 C CNN
F 2 "" H 12750 1600 50  0001 C CNN
F 3 "" H 12750 1600 50  0001 C CNN
	1    12750 1600
	1    0    0    -1  
$EndComp
$Comp
L power:+3V3 #PWR057
U 1 1 614C1B3A
P 14350 1650
F 0 "#PWR057" H 14350 1500 50  0001 C CNN
F 1 "+3V3" H 14365 1823 50  0000 C CNN
F 2 "" H 14350 1650 50  0001 C CNN
F 3 "" H 14350 1650 50  0001 C CNN
	1    14350 1650
	1    0    0    -1  
$EndComp
$Comp
L Connector_Generic:Conn_01x05 J7
U 1 1 614C6BC2
P 7700 8200
F 0 "J7" V 7700 7850 50  0000 L CNN
F 1 "JTAG" V 7800 8100 50  0000 L CNN
F 2 "Connector_PinHeader_2.54mm:PinHeader_1x05_P2.54mm_Vertical" H 7700 8200 50  0001 C CNN
F 3 "~" H 7700 8200 50  0001 C CNN
	1    7700 8200
	0    1    1    0   
$EndComp
Text GLabel 7300 7600 0    50   Input ~ 0
TP_GPU-CLK
Text GLabel 7300 6900 0    50   Output ~ 0
TP_GPU-DO
Text GLabel 7300 7500 0    50   Input ~ 0
TP_GPU-DIN
Text GLabel 9000 5700 1    50   Input ~ 0
RX-GD3X
Text GLabel 8900 5700 1    50   Output ~ 0
TX-GD3X
NoConn ~ 8400 5700
NoConn ~ 8500 5700
NoConn ~ 8600 5700
NoConn ~ 8700 5700
NoConn ~ 8800 5700
NoConn ~ 7300 6200
NoConn ~ 7500 5700
NoConn ~ 7300 6300
NoConn ~ 7300 6800
NoConn ~ 7300 7000
NoConn ~ 7300 7100
Text Notes 4200 5450 0    50   ~ 0
Z20X Expansion bus connector to pick \nup the optional DAZZLER SEL signal.
$Comp
L power:GND #PWR032
U 1 1 61646261
P 8250 5700
F 0 "#PWR032" H 8250 5450 50  0001 C CNN
F 1 "GND" H 8255 5527 50  0000 C CNN
F 2 "" H 8250 5700 50  0001 C CNN
F 3 "" H 8250 5700 50  0001 C CNN
	1    8250 5700
	-1   0    0    1   
$EndComp
$Comp
L power:GND #PWR041
U 1 1 6165C667
P 12100 5800
F 0 "#PWR041" H 12100 5550 50  0001 C CNN
F 1 "GND" V 12105 5672 50  0000 R CNN
F 2 "" H 12100 5800 50  0001 C CNN
F 3 "" H 12100 5800 50  0001 C CNN
	1    12100 5800
	0    1    1    0   
$EndComp
$Comp
L power:GND #PWR043
U 1 1 6165D529
P 12100 7400
F 0 "#PWR043" H 12100 7150 50  0001 C CNN
F 1 "GND" V 12105 7272 50  0000 R CNN
F 2 "" H 12100 7400 50  0001 C CNN
F 3 "" H 12100 7400 50  0001 C CNN
	1    12100 7400
	0    1    1    0   
$EndComp
$Comp
L power:+3V3 #PWR042
U 1 1 6165DB62
P 12100 6000
F 0 "#PWR042" H 12100 5850 50  0001 C CNN
F 1 "+3V3" V 12115 6128 50  0000 L CNN
F 2 "" H 12100 6000 50  0001 C CNN
F 3 "" H 12100 6000 50  0001 C CNN
	1    12100 6000
	0    -1   -1   0   
$EndComp
$Comp
L power:+3V3 #PWR044
U 1 1 6165E610
P 12100 7600
F 0 "#PWR044" H 12100 7450 50  0001 C CNN
F 1 "+3V3" V 12115 7728 50  0000 L CNN
F 2 "" H 12100 7600 50  0001 C CNN
F 3 "" H 12100 7600 50  0001 C CNN
	1    12100 7600
	0    -1   -1   0   
$EndComp
Text GLabel 7600 5700 1    50   Input ~ 0
P1_SDA
Text GLabel 7700 5700 1    50   Input ~ 0
P1_DETECT
Text GLabel 7800 5700 1    50   Output ~ 0
P1_SCL
Text GLabel 7900 5700 1    50   Input ~ 0
P2_SDA
Text GLabel 8000 5700 1    50   Input ~ 0
P2_DETECT
Text GLabel 8100 5700 1    50   Output ~ 0
P2_SCL
Text GLabel 12750 7500 2    50   Input ~ 0
P2_SCL
Text GLabel 12100 7800 0    50   Output ~ 0
P2_DETECT
Text GLabel 12750 7700 2    50   Output ~ 0
P2_SDA
Text GLabel 12750 5900 2    50   Input ~ 0
P1_SCL
Text GLabel 12750 6100 2    50   Output ~ 0
P1_SDA
Text GLabel 12100 6200 0    50   Output ~ 0
P1_DETECT
Text Notes 12850 5250 2    50   ~ 0
WII Controller connectors.
Text Notes 8450 4950 2    50   ~ 0
Dazzler GD3X
$Comp
L power:GND #PWR023
U 1 1 6169CEFF
P 5150 5800
F 0 "#PWR023" H 5150 5550 50  0001 C CNN
F 1 "GND" V 5155 5672 50  0000 R CNN
F 2 "" H 5150 5800 50  0001 C CNN
F 3 "" H 5150 5800 50  0001 C CNN
	1    5150 5800
	0    -1   -1   0   
$EndComp
$Comp
L power:GND #PWR015
U 1 1 6169DB8E
P 4650 5800
F 0 "#PWR015" H 4650 5550 50  0001 C CNN
F 1 "GND" V 4655 5672 50  0000 R CNN
F 2 "" H 4650 5800 50  0001 C CNN
F 3 "" H 4650 5800 50  0001 C CNN
	1    4650 5800
	0    1    1    0   
$EndComp
$Comp
L power:+5V #PWR024
U 1 1 6169E4A7
P 5150 5900
F 0 "#PWR024" H 5150 5750 50  0001 C CNN
F 1 "+5V" V 5165 6028 50  0000 L CNN
F 2 "" H 5150 5900 50  0001 C CNN
F 3 "" H 5150 5900 50  0001 C CNN
	1    5150 5900
	0    1    1    0   
$EndComp
$Comp
L power:+5V #PWR016
U 1 1 6169EDF7
P 4650 5900
F 0 "#PWR016" H 4650 5750 50  0001 C CNN
F 1 "+5V" V 4665 6028 50  0000 L CNN
F 2 "" H 4650 5900 50  0001 C CNN
F 3 "" H 4650 5900 50  0001 C CNN
	1    4650 5900
	0    -1   -1   0   
$EndComp
$Comp
L power:GND #PWR017
U 1 1 616A3372
P 4650 9300
F 0 "#PWR017" H 4650 9050 50  0001 C CNN
F 1 "GND" V 4655 9172 50  0000 R CNN
F 2 "" H 4650 9300 50  0001 C CNN
F 3 "" H 4650 9300 50  0001 C CNN
	1    4650 9300
	0    1    1    0   
$EndComp
$Comp
L power:GND #PWR025
U 1 1 616A44C7
P 5150 9300
F 0 "#PWR025" H 5150 9050 50  0001 C CNN
F 1 "GND" V 5155 9172 50  0000 R CNN
F 2 "" H 5150 9300 50  0001 C CNN
F 3 "" H 5150 9300 50  0001 C CNN
	1    5150 9300
	0    -1   -1   0   
$EndComp
$Comp
L Device:C C3
U 1 1 616A7CA4
P 4900 9750
F 0 "C3" V 4648 9750 50  0000 C CNN
F 1 "0.1uF" V 4739 9750 50  0000 C CNN
F 2 "Capacitor_THT:C_Axial_L3.8mm_D2.6mm_P7.50mm_Horizontal" H 4938 9600 50  0001 C CNN
F 3 "~" H 4900 9750 50  0001 C CNN
	1    4900 9750
	0    1    1    0   
$EndComp
$Comp
L Device:C C4
U 1 1 616AB9DF
P 7600 8800
F 0 "C4" V 7348 8800 50  0000 C CNN
F 1 "0.1uF" V 7439 8800 50  0000 C CNN
F 2 "Capacitor_THT:C_Axial_L3.8mm_D2.6mm_P7.50mm_Horizontal" H 7638 8650 50  0001 C CNN
F 3 "~" H 7600 8800 50  0001 C CNN
	1    7600 8800
	0    1    1    0   
$EndComp
$Comp
L Device:C C6
U 1 1 616B8E17
P 12450 6700
F 0 "C6" V 12198 6700 50  0000 C CNN
F 1 "0.1uF" V 12289 6700 50  0000 C CNN
F 2 "Capacitor_THT:C_Axial_L3.8mm_D2.6mm_P7.50mm_Horizontal" H 12488 6550 50  0001 C CNN
F 3 "~" H 12450 6700 50  0001 C CNN
	1    12450 6700
	0    1    1    0   
$EndComp
$Comp
L Device:C C7
U 1 1 616B9A99
P 12450 8300
F 0 "C7" V 12198 8300 50  0000 C CNN
F 1 "0.1uF" V 12289 8300 50  0000 C CNN
F 2 "Capacitor_THT:C_Axial_L3.8mm_D2.6mm_P7.50mm_Horizontal" H 12488 8150 50  0001 C CNN
F 3 "~" H 12450 8300 50  0001 C CNN
	1    12450 8300
	0    1    1    0   
$EndComp
$Comp
L Device:C C5
U 1 1 616C4BEE
P 8900 8800
F 0 "C5" V 8648 8800 50  0000 C CNN
F 1 "0.1uF" V 8739 8800 50  0000 C CNN
F 2 "Capacitor_THT:C_Axial_L3.8mm_D2.6mm_P7.50mm_Horizontal" H 8938 8650 50  0001 C CNN
F 3 "~" H 8900 8800 50  0001 C CNN
	1    8900 8800
	0    1    1    0   
$EndComp
$Comp
L Device:C C1
U 1 1 616CA407
P 1800 2350
F 0 "C1" V 1548 2350 50  0000 C CNN
F 1 "0.1uF" V 1639 2350 50  0000 C CNN
F 2 "Capacitor_THT:C_Axial_L3.8mm_D2.6mm_P7.50mm_Horizontal" H 1838 2200 50  0001 C CNN
F 3 "~" H 1800 2350 50  0001 C CNN
	1    1800 2350
	0    1    1    0   
$EndComp
$Comp
L power:GND #PWR010
U 1 1 616F5BD7
P 1950 2350
F 0 "#PWR010" H 1950 2100 50  0001 C CNN
F 1 "GND" V 1955 2222 50  0000 R CNN
F 2 "" H 1950 2350 50  0001 C CNN
F 3 "" H 1950 2350 50  0001 C CNN
	1    1950 2350
	0    -1   -1   0   
$EndComp
$Comp
L power:GND #PWR022
U 1 1 616F94D7
P 5050 9750
F 0 "#PWR022" H 5050 9500 50  0001 C CNN
F 1 "GND" V 5055 9622 50  0000 R CNN
F 2 "" H 5050 9750 50  0001 C CNN
F 3 "" H 5050 9750 50  0001 C CNN
	1    5050 9750
	0    -1   -1   0   
$EndComp
$Comp
L power:GND #PWR027
U 1 1 616FA592
P 7750 8800
F 0 "#PWR027" H 7750 8550 50  0001 C CNN
F 1 "GND" V 7755 8672 50  0000 R CNN
F 2 "" H 7750 8800 50  0001 C CNN
F 3 "" H 7750 8800 50  0001 C CNN
	1    7750 8800
	0    -1   -1   0   
$EndComp
$Comp
L power:GND #PWR037
U 1 1 616FAFC9
P 9050 8800
F 0 "#PWR037" H 9050 8550 50  0001 C CNN
F 1 "GND" V 9055 8672 50  0000 R CNN
F 2 "" H 9050 8800 50  0001 C CNN
F 3 "" H 9050 8800 50  0001 C CNN
	1    9050 8800
	0    -1   -1   0   
$EndComp
$Comp
L Device:C C2
U 1 1 616FCE97
P 1800 8600
F 0 "C2" V 1548 8600 50  0000 C CNN
F 1 "0.1uF" V 1639 8600 50  0000 C CNN
F 2 "Capacitor_THT:C_Axial_L3.8mm_D2.6mm_P7.50mm_Horizontal" H 1838 8450 50  0001 C CNN
F 3 "~" H 1800 8600 50  0001 C CNN
	1    1800 8600
	0    1    1    0   
$EndComp
$Comp
L power:GND #PWR011
U 1 1 616FD360
P 1950 8600
F 0 "#PWR011" H 1950 8350 50  0001 C CNN
F 1 "GND" V 1955 8472 50  0000 R CNN
F 2 "" H 1950 8600 50  0001 C CNN
F 3 "" H 1950 8600 50  0001 C CNN
	1    1950 8600
	0    -1   -1   0   
$EndComp
$Comp
L power:+5V #PWR09
U 1 1 616FD72E
P 1650 8600
F 0 "#PWR09" H 1650 8450 50  0001 C CNN
F 1 "+5V" V 1665 8728 50  0000 L CNN
F 2 "" H 1650 8600 50  0001 C CNN
F 3 "" H 1650 8600 50  0001 C CNN
	1    1650 8600
	0    -1   -1   0   
$EndComp
$Comp
L power:+3V3 #PWR08
U 1 1 61701C51
P 1650 2350
F 0 "#PWR08" H 1650 2200 50  0001 C CNN
F 1 "+3V3" V 1665 2478 50  0000 L CNN
F 2 "" H 1650 2350 50  0001 C CNN
F 3 "" H 1650 2350 50  0001 C CNN
	1    1650 2350
	0    -1   -1   0   
$EndComp
$Comp
L power:+5V #PWR018
U 1 1 61704FBE
P 4750 9750
F 0 "#PWR018" H 4750 9600 50  0001 C CNN
F 1 "+5V" V 4765 9878 50  0000 L CNN
F 2 "" H 4750 9750 50  0001 C CNN
F 3 "" H 4750 9750 50  0001 C CNN
	1    4750 9750
	0    -1   -1   0   
$EndComp
$Comp
L power:+5V #PWR033
U 1 1 617080C8
P 8750 8800
F 0 "#PWR033" H 8750 8650 50  0001 C CNN
F 1 "+5V" V 8765 8928 50  0000 L CNN
F 2 "" H 8750 8800 50  0001 C CNN
F 3 "" H 8750 8800 50  0001 C CNN
	1    8750 8800
	0    -1   -1   0   
$EndComp
$Comp
L power:+3V3 #PWR026
U 1 1 61708802
P 7450 8800
F 0 "#PWR026" H 7450 8650 50  0001 C CNN
F 1 "+3V3" V 7465 8928 50  0000 L CNN
F 2 "" H 7450 8800 50  0001 C CNN
F 3 "" H 7450 8800 50  0001 C CNN
	1    7450 8800
	0    -1   -1   0   
$EndComp
$Comp
L power:GND #PWR049
U 1 1 6170B08D
P 12600 6700
F 0 "#PWR049" H 12600 6450 50  0001 C CNN
F 1 "GND" V 12605 6572 50  0000 R CNN
F 2 "" H 12600 6700 50  0001 C CNN
F 3 "" H 12600 6700 50  0001 C CNN
	1    12600 6700
	0    -1   -1   0   
$EndComp
$Comp
L power:GND #PWR050
U 1 1 6170B812
P 12600 8300
F 0 "#PWR050" H 12600 8050 50  0001 C CNN
F 1 "GND" V 12605 8172 50  0000 R CNN
F 2 "" H 12600 8300 50  0001 C CNN
F 3 "" H 12600 8300 50  0001 C CNN
	1    12600 8300
	0    -1   -1   0   
$EndComp
$Comp
L power:+3V3 #PWR046
U 1 1 6170BC31
P 12300 6700
F 0 "#PWR046" H 12300 6550 50  0001 C CNN
F 1 "+3V3" V 12315 6828 50  0000 L CNN
F 2 "" H 12300 6700 50  0001 C CNN
F 3 "" H 12300 6700 50  0001 C CNN
	1    12300 6700
	0    -1   -1   0   
$EndComp
$Comp
L power:+3V3 #PWR047
U 1 1 6170C148
P 12300 8300
F 0 "#PWR047" H 12300 8150 50  0001 C CNN
F 1 "+3V3" V 12315 8428 50  0000 L CNN
F 2 "" H 12300 8300 50  0001 C CNN
F 3 "" H 12300 8300 50  0001 C CNN
	1    12300 8300
	0    -1   -1   0   
$EndComp
$Comp
L Connector_Generic:Conn_01x03 J8
U 1 1 617E8EFF
P 8400 8200
F 0 "J8" V 8400 8350 50  0000 L CNN
F 1 "I2C" V 8500 8150 50  0000 L CNN
F 2 "Connector_PinHeader_2.54mm:PinHeader_1x03_P2.54mm_Vertical" H 8400 8200 50  0001 C CNN
F 3 "~" H 8400 8200 50  0001 C CNN
	1    8400 8200
	0    1    1    0   
$EndComp
NoConn ~ 1550 5900
NoConn ~ 1550 7300
Text GLabel 11300 2850 0    50   Output ~ 0
ONBOARD_SD_MISO
Text GLabel 11300 2650 0    50   Input ~ 0
ONBOARD_SD_MOSI
Text GLabel 11300 2550 0    50   Input ~ 0
ONBOARD_SD_CS
Text GLabel 11300 2750 0    50   Input ~ 0
ONBOARD_SD_CLK
Wire Wire Line
	11300 2550 11400 2550
Wire Wire Line
	11300 2650 11500 2650
Wire Wire Line
	11300 2750 11600 2750
Wire Wire Line
	11300 2850 12150 2850
NoConn ~ 2050 7200
NoConn ~ 2050 7300
NoConn ~ 2050 7400
NoConn ~ 4650 6000
NoConn ~ 4650 6100
NoConn ~ 4650 6200
NoConn ~ 5150 6000
NoConn ~ 5150 6100
NoConn ~ 5150 6200
NoConn ~ 5150 6300
NoConn ~ 5150 6400
NoConn ~ 5150 6500
NoConn ~ 4650 6500
NoConn ~ 4650 6400
NoConn ~ 4650 6300
NoConn ~ 5150 6600
NoConn ~ 5150 6700
NoConn ~ 5150 6800
NoConn ~ 5150 6900
NoConn ~ 5150 7000
NoConn ~ 5150 7100
NoConn ~ 5150 7200
NoConn ~ 4650 7200
NoConn ~ 4650 7100
NoConn ~ 4650 7000
NoConn ~ 4650 6900
NoConn ~ 4650 6800
NoConn ~ 4650 6700
NoConn ~ 4650 6600
NoConn ~ 5150 7300
NoConn ~ 5150 7400
NoConn ~ 5150 7500
NoConn ~ 5150 7600
NoConn ~ 5150 7700
NoConn ~ 5150 7800
NoConn ~ 5150 7900
NoConn ~ 5150 8000
NoConn ~ 5150 8100
NoConn ~ 5150 8200
NoConn ~ 5150 8300
NoConn ~ 4650 8300
NoConn ~ 4650 8200
NoConn ~ 4650 8100
NoConn ~ 4650 8000
NoConn ~ 4650 7900
NoConn ~ 4650 7800
NoConn ~ 4650 7700
NoConn ~ 4650 7600
NoConn ~ 4650 7500
NoConn ~ 4650 7400
NoConn ~ 4650 7300
NoConn ~ 5150 8500
NoConn ~ 5150 8600
NoConn ~ 5150 8700
NoConn ~ 5150 8800
NoConn ~ 5150 8900
NoConn ~ 5150 9000
NoConn ~ 5150 9100
NoConn ~ 5150 9200
NoConn ~ 4650 9200
NoConn ~ 4650 9100
NoConn ~ 4650 9000
NoConn ~ 4650 8900
NoConn ~ 4650 8800
NoConn ~ 4650 8700
NoConn ~ 4650 8600
NoConn ~ 4650 8500
NoConn ~ 4650 8400
$Comp
L Device:R R11
U 1 1 616B2F5A
P 11550 1750
F 0 "R11" H 11620 1796 50  0000 L CNN
F 1 "470" H 11620 1705 50  0000 L CNN
F 2 "Resistor_THT:R_Axial_DIN0207_L6.3mm_D2.5mm_P10.16mm_Horizontal" V 11480 1750 50  0001 C CNN
F 3 "~" H 11550 1750 50  0001 C CNN
	1    11550 1750
	1    0    0    -1  
$EndComp
$Comp
L Device:LED D3
U 1 1 616B5029
P 11550 2050
F 0 "D3" V 11589 1932 50  0000 R CNN
F 1 "LED" V 11498 1932 50  0000 R CNN
F 2 "LED_THT:LED_D3.0mm" H 11550 2050 50  0001 C CNN
F 3 "~" H 11550 2050 50  0001 C CNN
	1    11550 2050
	0    -1   -1   0   
$EndComp
$Comp
L power:+3V3 #PWR038
U 1 1 616B57D2
P 11550 1600
F 0 "#PWR038" H 11550 1450 50  0001 C CNN
F 1 "+3V3" H 11565 1773 50  0000 C CNN
F 2 "" H 11550 1600 50  0001 C CNN
F 3 "" H 11550 1600 50  0001 C CNN
	1    11550 1600
	1    0    0    -1  
$EndComp
Wire Wire Line
	11550 2200 11550 2350
Connection ~ 11550 2350
Wire Wire Line
	11550 2350 12450 2350
$EndSCHEMATC
