(module Dazzler_GD3X (layer F.Cu) (tedit 616059B3)
  (fp_text reference REF** (at 55.5 29.5 180) (layer F.SilkS) hide
    (effects (font (size 1 1) (thickness 0.15)))
  )
  (fp_text value Dazzler_GD3X (at 25 21 180) (layer F.SilkS)
    (effects (font (size 1 1) (thickness 0.15)))
  )
  (fp_line (start 50 1) (end 39.5 1) (layer F.SilkS) (width 0.12))
  (fp_line (start 39.5 16) (end 39.5 1) (layer F.SilkS) (width 0.12))
  (fp_line (start 50 16) (end 39.5 16) (layer F.SilkS) (width 0.12))
  (fp_line (start 50 42) (end 50 0) (layer F.SilkS) (width 0.12))
  (fp_line (start 50 0) (end 0 0) (layer F.SilkS) (width 0.12))
  (fp_line (start 0 42) (end 0 0) (layer F.SilkS) (width 0.12))
  (fp_line (start 50 42) (end 0 42) (layer F.SilkS) (width 0.12))
  (fp_text user 1 (at 34.5 -2.5) (layer F.SilkS)
    (effects (font (size 1 1) (thickness 0.15)))
  )
  (fp_text user 14 (at 6.5 -2.5) (layer F.SilkS)
    (effects (font (size 1 0.75) (thickness 0.15)))
  )
  (fp_text user 13 (at 8.5 -2.5) (layer F.SilkS)
    (effects (font (size 1 0.75) (thickness 0.15)))
  )
  (fp_text user GND (at 20.5 -2.5) (layer F.SilkS)
    (effects (font (size 1 0.75) (thickness 0.15)))
  )
  (fp_text user 8 (at 18.5 -2.5) (layer F.SilkS)
    (effects (font (size 1 1) (thickness 0.15)))
  )
  (fp_text user 7 (at 22.5 -2.5) (layer F.SilkS)
    (effects (font (size 1 1) (thickness 0.15)))
  )
  (fp_text user 9 (at 16.5 -2.5) (layer F.SilkS)
    (effects (font (size 1 1) (thickness 0.15)))
  )
  (fp_text user 10 (at 14.5 -2.5) (layer F.SilkS)
    (effects (font (size 1 0.75) (thickness 0.15)))
  )
  (fp_text user 11 (at 12.5 -2.5) (layer F.SilkS)
    (effects (font (size 1 0.75) (thickness 0.15)))
  )
  (fp_text user 12 (at 10.5 -2.5) (layer F.SilkS)
    (effects (font (size 1 0.75) (thickness 0.15)))
  )
  (fp_text user 6 (at 24.5 -2.5) (layer F.SilkS)
    (effects (font (size 1 1) (thickness 0.15)))
  )
  (fp_text user 5 (at 26.5 -2.5) (layer F.SilkS)
    (effects (font (size 1 1) (thickness 0.15)))
  )
  (fp_text user 4 (at 28.5 -2.5) (layer F.SilkS)
    (effects (font (size 1 1) (thickness 0.15)))
  )
  (fp_text user 3 (at 30.5 -2.5) (layer F.SilkS)
    (effects (font (size 1 1) (thickness 0.15)))
  )
  (fp_text user 2 (at 32.5 -2.5) (layer F.SilkS)
    (effects (font (size 1 1) (thickness 0.15)))
  )
  (fp_text user "HDMI conn" (at 51.5 8.5 90) (layer F.SilkS)
    (effects (font (size 1 1) (thickness 0.15)))
  )
  (fp_text user 15 (at -2.5 6) (layer F.SilkS)
    (effects (font (size 1 1) (thickness 0.15)))
  )
  (fp_text user 16 (at -2.5 8) (layer F.SilkS)
    (effects (font (size 1 1) (thickness 0.15)))
  )
  (fp_text user 17 (at -2.5 10) (layer F.SilkS)
    (effects (font (size 1 1) (thickness 0.15)))
  )
  (fp_text user 18 (at -2.5 12) (layer F.SilkS)
    (effects (font (size 1 1) (thickness 0.15)))
  )
  (fp_text user 19 (at -2.5 14) (layer F.SilkS)
    (effects (font (size 1 1) (thickness 0.15)))
  )
  (fp_text user 20 (at -2.5 16) (layer F.SilkS)
    (effects (font (size 1 1) (thickness 0.15)))
  )
  (fp_text user 21 (at -2.5 18) (layer F.SilkS)
    (effects (font (size 1 1) (thickness 0.15)))
  )
  (fp_text user 22 (at -2.5 20) (layer F.SilkS)
    (effects (font (size 1 1) (thickness 0.15)))
  )
  (fp_text user GND (at -3 22) (layer F.SilkS)
    (effects (font (size 1 1) (thickness 0.15)))
  )
  (fp_text user 23 (at -2.5 24) (layer F.SilkS)
    (effects (font (size 1 1) (thickness 0.15)))
  )
  (fp_text user 24 (at -2.5 26) (layer F.SilkS)
    (effects (font (size 1 1) (thickness 0.15)))
  )
  (fp_text user 25 (at -2.5 28) (layer F.SilkS)
    (effects (font (size 1 1) (thickness 0.15)))
  )
  (fp_text user 26 (at -2.5 30) (layer F.SilkS)
    (effects (font (size 1 1) (thickness 0.15)))
  )
  (fp_text user 27 (at -2.5 32) (layer F.SilkS)
    (effects (font (size 1 1) (thickness 0.15)))
  )
  (fp_text user 28 (at -2.5 34) (layer F.SilkS)
    (effects (font (size 1 1) (thickness 0.15)))
  )
  (fp_text user 29 (at -2.5 36) (layer F.SilkS)
    (effects (font (size 1 1) (thickness 0.15)))
  )
  (fp_text user TMS (at 8.5 44.392857 90) (layer F.SilkS)
    (effects (font (size 1 0.75) (thickness 0.15)))
  )
  (fp_text user TCK (at 10.5 44.357143 90) (layer F.SilkS)
    (effects (font (size 1 0.75) (thickness 0.15)))
  )
  (fp_text user TDO (at 12.5 44.375 90) (layer F.SilkS)
    (effects (font (size 1 0.75) (thickness 0.15)))
  )
  (fp_text user TDI (at 14.5 44.160714 90) (layer F.SilkS)
    (effects (font (size 1 0.75) (thickness 0.15)))
  )
  (fp_text user PGM (at 16.5 44.5 90) (layer F.SilkS)
    (effects (font (size 1 0.75) (thickness 0.15)))
  )
  (fp_text user RST (at 20.5 44.339285 90) (layer F.SilkS)
    (effects (font (size 1 0.75) (thickness 0.15)))
  )
  (fp_text user INT (at 22.5 44.178571 90) (layer F.SilkS)
    (effects (font (size 1 0.75) (thickness 0.15)))
  )
  (fp_text user SCL (at 24.5 44.357143 90) (layer F.SilkS)
    (effects (font (size 1 0.75) (thickness 0.15)))
  )
  (fp_text user SDA (at 26.5 44.375 90) (layer F.SilkS)
    (effects (font (size 1 0.75) (thickness 0.15)))
  )
  (fp_text user 3V3 (at 30.5 44.357143 90) (layer F.SilkS)
    (effects (font (size 1 0.75) (thickness 0.15)))
  )
  (fp_text user GND (at 32.5 44.464285 90) (layer F.SilkS)
    (effects (font (size 1 0.75) (thickness 0.15)))
  )
  (fp_text user 5V (at 34.5 44 90) (layer F.SilkS)
    (effects (font (size 1 0.75) (thickness 0.15)))
  )
  (pad 5V smd rect (at 34.5 42 180) (size 1 2) (layers F.Cu F.Paste F.Mask))
  (pad GND smd rect (at 32.5 42 180) (size 1 2) (layers F.Cu F.Paste F.Mask))
  (pad 3V3 smd rect (at 30.5 42 180) (size 1 2) (layers F.Cu F.Paste F.Mask))
  (pad PGM smd rect (at 16.5 42 180) (size 1 2) (layers F.Cu F.Paste F.Mask))
  (pad TDI smd rect (at 14.5 42 180) (size 1 2) (layers F.Cu F.Paste F.Mask))
  (pad TDO smd rect (at 12.5 42 180) (size 1 2) (layers F.Cu F.Paste F.Mask))
  (pad TCK smd rect (at 10.5 42 180) (size 1 2) (layers F.Cu F.Paste F.Mask))
  (pad TMS smd rect (at 8.5 42 180) (size 1 2) (layers F.Cu F.Paste F.Mask))
  (pad SDA smd rect (at 26.5 42 180) (size 1 2) (layers F.Cu F.Paste F.Mask))
  (pad SCL smd rect (at 24.5 42 180) (size 1 2) (layers F.Cu F.Paste F.Mask))
  (pad INT smd rect (at 22.5 42 180) (size 1 2) (layers F.Cu F.Paste F.Mask))
  (pad RST smd rect (at 20.5 42 180) (size 1 2) (layers F.Cu F.Paste F.Mask))
  (pad 29 smd rect (at 0 36 270) (size 1 2) (layers F.Cu F.Paste F.Mask))
  (pad 28 smd rect (at 0 34 270) (size 1 2) (layers F.Cu F.Paste F.Mask))
  (pad 27 smd rect (at 0 32 270) (size 1 2) (layers F.Cu F.Paste F.Mask))
  (pad 26 smd rect (at 0 30 270) (size 1 2) (layers F.Cu F.Paste F.Mask))
  (pad 25 smd rect (at 0 28 270) (size 1 2) (layers F.Cu F.Paste F.Mask))
  (pad 24 smd rect (at 0 26 270) (size 1 2) (layers F.Cu F.Paste F.Mask))
  (pad 23 smd rect (at 0 24 270) (size 1 2) (layers F.Cu F.Paste F.Mask))
  (pad GND smd rect (at 0 22 270) (size 1 2) (layers F.Cu F.Paste F.Mask))
  (pad 22 smd rect (at 0 20 270) (size 1 2) (layers F.Cu F.Paste F.Mask))
  (pad 21 smd rect (at 0 18 270) (size 1 2) (layers F.Cu F.Paste F.Mask))
  (pad 20 smd rect (at 0 16 270) (size 1 2) (layers F.Cu F.Paste F.Mask))
  (pad 19 smd rect (at 0 14 270) (size 1 2) (layers F.Cu F.Paste F.Mask))
  (pad 18 smd rect (at 0 12 270) (size 1 2) (layers F.Cu F.Paste F.Mask))
  (pad 17 smd rect (at 0 10 270) (size 1 2) (layers F.Cu F.Paste F.Mask))
  (pad 16 smd rect (at 0 8 270) (size 1 2) (layers F.Cu F.Paste F.Mask))
  (pad 15 smd rect (at 0 6 270) (size 1 2) (layers F.Cu F.Paste F.Mask))
  (pad 1 smd rect (at 34.5 0 180) (size 1 2) (layers F.Cu F.Paste F.Mask))
  (pad 2 smd rect (at 32.5 0 180) (size 1 2) (layers F.Cu F.Paste F.Mask))
  (pad 3 smd rect (at 30.5 0 180) (size 1 2) (layers F.Cu F.Paste F.Mask))
  (pad 4 smd rect (at 28.5 0 180) (size 1 2) (layers F.Cu F.Paste F.Mask))
  (pad 5 smd rect (at 26.5 0 180) (size 1 2) (layers F.Cu F.Paste F.Mask))
  (pad 6 smd rect (at 24.5 0 180) (size 1 2) (layers F.Cu F.Paste F.Mask))
  (pad 7 smd rect (at 22.5 0 180) (size 1 2) (layers F.Cu F.Paste F.Mask))
  (pad GND smd rect (at 20.5 0 180) (size 1 2) (layers F.Cu F.Paste F.Mask))
  (pad 8 smd rect (at 18.5 0 180) (size 1 2) (layers F.Cu F.Paste F.Mask))
  (pad 9 smd rect (at 16.5 0 180) (size 1 2) (layers F.Cu F.Paste F.Mask))
  (pad 10 smd rect (at 14.5 0 180) (size 1 2) (layers F.Cu F.Paste F.Mask))
  (pad 11 smd rect (at 12.5 0 180) (size 1 2) (layers F.Cu F.Paste F.Mask))
  (pad 12 smd rect (at 10.5 0 180) (size 1 2) (layers F.Cu F.Paste F.Mask))
  (pad 13 smd rect (at 8.5 0 180) (size 1 2) (layers F.Cu F.Paste F.Mask))
  (pad 14 smd rect (at 6.5 0 180) (size 1 2) (layers F.Cu F.Paste F.Mask))
  (pad "" np_thru_hole circle (at 2.8 2.8) (size 2.5 2.5) (drill 2.5) (layers *.Cu *.Mask))
  (pad "" np_thru_hole circle (at 2.8 39.2) (size 2.5 2.5) (drill 2.5) (layers *.Cu *.Mask))
  (pad "" np_thru_hole circle (at 47.2 39.2) (size 2.5 2.5) (drill 2.5) (layers *.Cu *.Mask))
  (pad "" np_thru_hole circle (at 40.25 15.5) (size 2.75 2.75) (drill 2.75) (layers *.Cu *.Mask))
  (pad "" np_thru_hole circle (at 40.25 1.5) (size 2.75 2.75) (drill 2.75) (layers *.Cu *.Mask))
  (pad "" np_thru_hole circle (at 46.5 1) (size 2 2) (drill 2) (layers *.Cu *.Mask))
  (pad "" np_thru_hole circle (at 46.5 16) (size 2 2) (drill 2) (layers *.Cu *.Mask))
)
