M48
; DRILL file {KiCad 5.1.10} date Fri Oct  8 18:15:43 2021
; FORMAT={-:-/ absolute / inch / decimal}
; #@! TF.CreationDate,2021-10-08T18:15:43+02:00
; #@! TF.GenerationSoftware,Kicad,Pcbnew,5.1.10
; #@! TF.FileFunction,Plated,1,2,PTH
FMAT,2
INCH
T1C0.0118
T2C0.0157
T3C0.0315
T4C0.0354
T5C0.0394
T6C0.1260
%
G90
G05
T1
X0.25Y-0.25
X0.25Y-1.5
X0.25Y-2.0
X0.25Y-2.5
X0.25Y-3.25
X0.25Y-4.0
X0.5Y-0.25
X0.5Y-0.75
X0.5Y-1.0
X0.5Y-1.25
X0.5Y-1.5
X0.5Y-1.75
X0.5Y-2.0
X0.5Y-2.25
X0.5Y-2.4
X0.5Y-2.5
X0.5Y-2.6
X0.5Y-3.0
X0.5Y-3.25
X0.5Y-3.75
X0.5Y-4.0
X0.505Y-3.53
X0.505Y-3.56
X0.75Y-0.25
X0.75Y-0.75
X0.75Y-1.0
X0.75Y-1.25
X0.75Y-1.5
X0.75Y-1.75
X0.75Y-2.25
X0.75Y-2.5
X0.75Y-3.0
X0.75Y-3.75
X0.75Y-4.0
X0.79Y-3.055
X0.83Y-3.055
X0.87Y-3.055
X1.0Y-1.0
X1.0Y-1.25
X1.0Y-1.5
X1.0Y-1.75
X1.0Y-2.0
X1.0Y-2.25
X1.0Y-2.4
X1.0Y-2.5
X1.0Y-2.6
X1.0Y-2.675
X1.0Y-3.0
X1.0Y-3.25
X1.0Y-3.5
X1.0Y-3.75
X1.0Y-4.0
X1.065Y-0.44
X1.25Y-0.75
X1.25Y-1.0
X1.25Y-1.25
X1.25Y-1.5
X1.25Y-1.75
X1.25Y-2.0
X1.25Y-2.25
X1.25Y-2.5
X1.25Y-3.0
X1.25Y-3.25
X1.25Y-3.5
X1.25Y-3.75
X1.25Y-4.0
X1.5Y-0.25
X1.5Y-1.0
X1.5Y-1.25
X1.5Y-1.5
X1.5Y-1.75
X1.5Y-2.0
X1.5Y-2.25
X1.5Y-2.4
X1.5Y-3.0
X1.5Y-3.25
X1.75Y-0.25
X1.75Y-0.75
X1.75Y-1.25
X1.75Y-1.5
X1.75Y-1.75
X1.75Y-2.0
X1.75Y-2.5
X1.75Y-3.0
X1.75Y-3.25
X2.0Y-0.75
X2.0Y-1.5
X2.0Y-1.75
X2.0Y-2.25
X2.0Y-2.5
X2.0Y-3.0
X2.25Y-0.75
X2.25Y-1.25
X2.25Y-1.5
X2.25Y-2.0
X2.25Y-2.25
X2.25Y-2.5
X2.435Y-3.03
X2.5Y-0.25
X2.5Y-0.75
X2.5Y-1.0
X2.5Y-1.25
X2.5Y-1.75
X2.5Y-2.0
X2.5Y-2.25
X2.5Y-2.5
X2.57Y-3.12
X2.75Y-0.25
X2.75Y-0.5
X2.75Y-1.0
X2.75Y-1.25
X2.75Y-1.5
X2.75Y-1.75
X2.75Y-2.0
X2.75Y-2.25
X2.75Y-2.5
X2.87Y-3.12
X3.0Y-0.25
X3.0Y-0.5
X3.0Y-0.75
X3.0Y-1.25
X3.0Y-1.5
X3.0Y-1.75
X3.0Y-2.0
X3.0Y-2.25
X3.0Y-2.5
X3.25Y-0.25
X3.25Y-0.5
X3.25Y-0.75
X3.25Y-1.25
X3.25Y-1.5
X3.25Y-1.75
X3.25Y-2.0
X3.25Y-2.25
X3.25Y-2.5
X3.5Y-0.25
X3.5Y-0.5
X3.5Y-0.75
X3.5Y-1.25
X3.5Y-1.5
X3.5Y-1.75
X3.5Y-2.0
X3.5Y-2.25
X3.5Y-2.5
X3.75Y-0.25
X3.75Y-0.5
X3.75Y-0.75
X3.75Y-1.25
X3.75Y-1.5
X3.75Y-1.75
X3.75Y-2.0
X3.75Y-2.25
X3.75Y-2.5
X4.0Y-0.25
X4.0Y-0.5
X4.0Y-0.75
X4.0Y-1.25
X4.0Y-1.5
X4.0Y-1.75
X4.0Y-2.0
X4.0Y-2.25
X4.0Y-2.5
X4.25Y-0.25
X4.25Y-0.5
X4.25Y-0.75
X4.25Y-1.25
X4.25Y-1.5
X4.25Y-1.75
X4.25Y-2.25
X4.25Y-2.5
X4.5Y-0.25
X4.5Y-0.5
X4.5Y-0.75
X4.5Y-1.25
X4.5Y-1.5
X4.5Y-1.75
X4.5Y-2.0
X4.5Y-2.5
X4.59Y-2.36
X4.7Y-1.5
X4.75Y-0.25
X4.75Y-0.5
X4.75Y-0.75
X4.75Y-1.25
X4.75Y-1.5
X4.75Y-1.75
X4.75Y-2.0
X4.75Y-2.25
X4.795Y-2.6
X4.875Y-2.4
X4.93Y-1.695
X4.93Y-1.775
X4.93Y-1.85
X4.9378Y-2.6772
X5.0Y-0.25
X5.0Y-0.5
X5.0Y-0.75
X5.0Y-2.0
X5.0Y-2.25
X5.25Y-0.25
X5.25Y-0.5
X5.25Y-0.75
X5.25Y-1.25
X5.25Y-2.25
X5.25Y-2.5
X5.5Y-0.25
X5.5Y-0.5
X5.5Y-0.75
X5.5Y-1.1
X5.5Y-1.5
X5.5Y-1.75
X5.5Y-2.0
X5.5Y-2.5
X5.5Y-2.75
X5.53Y-3.06
X5.61Y-3.06
X5.69Y-3.06
X5.73Y-1.37
X5.75Y-2.75
X5.75Y-3.5
X5.75Y-3.75
X5.75Y-4.0
X5.765Y-3.06
X5.805Y-1.37
X5.885Y-1.37
X6.0Y-1.1
X6.0Y-1.5
X6.0Y-2.25
X6.0Y-2.5
X6.0Y-3.5
X6.0Y-3.75
X6.0Y-4.0
X6.08Y-3.06
X6.16Y-3.06
X6.25Y-0.25
X6.25Y-1.5
X6.25Y-1.75
X6.25Y-2.25
X6.25Y-2.5
X6.25Y-2.75
X6.25Y-3.5
X6.25Y-3.75
X6.25Y-4.0
X6.285Y-2.915
X6.3135Y-0.6765
X6.355Y-1.11
X6.5Y-0.25
X6.5Y-1.5
X6.5Y-1.75
X6.5Y-2.0
X6.5Y-2.5
X6.5Y-2.75
X6.5Y-3.75
X6.5Y-4.0
X6.6796Y-3.5646
X6.75Y-0.25
X6.75Y-1.5
X6.75Y-1.75
X6.75Y-2.0
X6.75Y-2.25
X6.75Y-3.565
X6.75Y-3.75
X6.75Y-4.0
X7.0Y-0.5
X7.0Y-0.75
X7.0Y-1.0
X7.0Y-1.5
X7.0Y-1.75
X7.0Y-2.0
X7.0Y-2.25
X7.0Y-2.5
X7.0Y-3.0
T2
X0.705Y-2.92
X4.959Y-1.6525
X4.99Y-1.7325
X5.0225Y-1.81
X5.0525Y-1.89
T3
X0.34Y-2.04
X0.34Y-2.17
X0.34Y-2.7756
X0.34Y-3.0709
X0.4Y-0.4
X0.4Y-0.8
X0.64Y-3.42
X0.64Y-3.7153
X0.74Y-2.04
X0.74Y-2.17
X0.8Y-0.4
X0.8Y-0.8
X1.3Y-0.1575
X1.3Y-0.4528
X1.3Y-0.6
X1.3Y-0.8
X1.7Y-0.6
X1.7Y-0.8
X2.0Y-0.6
X2.0Y-1.0
X2.2Y-0.6
X2.2Y-1.0
X2.31Y-3.03
X2.4Y-0.6
X2.4Y-1.0
X2.71Y-3.03
X5.0492Y-3.05
X5.3445Y-3.05
X5.75Y-0.4169
X5.75Y-0.8169
X6.38Y-3.2047
X6.38Y-3.5
X6.51Y-3.2047
X6.51Y-3.5
X6.51Y-3.5947
X6.51Y-3.89
X6.65Y-0.93
X6.65Y-1.05
X6.65Y-1.17
X7.05Y-0.93
X7.05Y-1.05
X7.05Y-1.17
T4
X0.1Y-0.4
X0.1Y-0.8
X0.2Y-0.4
X0.2Y-0.8
X5.75Y-0.09
X5.75Y-0.19
T5
X0.1Y-1.1417
X0.1Y-1.2417
X0.1Y-1.3417
X0.1Y-1.4417
X0.1Y-1.5417
X0.1Y-1.6417
X0.1Y-1.7417
X0.1Y-1.8417
X0.1Y-1.9417
X0.1Y-2.0417
X0.1Y-2.1417
X0.1Y-2.2417
X0.1Y-2.3417
X0.1Y-2.4417
X0.1Y-2.5417
X0.1Y-2.6417
X0.1Y-2.7417
X0.1Y-2.8417
X0.1Y-2.9417
X0.1Y-3.0417
X0.2Y-1.1417
X0.2Y-1.2417
X0.2Y-1.3417
X0.2Y-1.4417
X0.2Y-1.5417
X0.2Y-1.6417
X0.2Y-1.7417
X0.2Y-1.8417
X0.2Y-1.9417
X0.2Y-2.0417
X0.2Y-2.1417
X0.2Y-2.2417
X0.2Y-2.3417
X0.2Y-2.4417
X0.2Y-2.5417
X0.2Y-2.6417
X0.2Y-2.7417
X0.2Y-2.8417
X0.2Y-2.9417
X0.2Y-3.0417
X0.9646Y-0.187
X0.9646Y-0.287
X0.9646Y-0.6
X0.9646Y-0.7
X1.0646Y-0.187
X1.0646Y-0.287
X1.0646Y-0.6
X1.0646Y-0.7
X1.1646Y-0.187
X1.1646Y-0.287
X1.1646Y-0.6
X1.1646Y-0.7
X1.815Y-3.1972
X1.815Y-3.2972
X1.9Y-0.187
X1.9Y-0.4
X1.915Y-3.1972
X1.915Y-3.2972
X2.0Y-0.187
X2.0Y-0.4
X2.015Y-3.1972
X2.015Y-3.2972
X2.1Y-0.187
X2.1Y-0.4
X2.115Y-3.1972
X2.115Y-3.2972
X2.2Y-0.187
X2.215Y-3.1972
X2.215Y-3.2972
X2.3Y-0.187
X2.315Y-3.1972
X2.315Y-3.2972
X2.4Y-0.187
X2.415Y-3.1972
X2.415Y-3.2972
X2.515Y-3.1972
X2.515Y-3.2972
X2.615Y-3.1972
X2.615Y-3.2972
X2.715Y-3.1972
X2.715Y-3.2972
X2.815Y-3.1972
X2.815Y-3.2972
X2.915Y-3.1972
X2.915Y-3.2972
X3.015Y-3.1972
X3.015Y-3.2972
X3.115Y-3.1972
X3.115Y-3.2972
X3.215Y-3.1972
X3.215Y-3.2972
X3.315Y-3.1972
X3.315Y-3.2972
X3.415Y-3.1972
X3.415Y-3.2972
X3.515Y-3.1972
X3.515Y-3.2972
X3.615Y-3.1972
X3.615Y-3.2972
X3.715Y-3.1972
X3.715Y-3.2972
X3.815Y-3.1972
X3.815Y-3.2972
X3.915Y-3.1972
X3.915Y-3.2972
X4.015Y-3.1972
X4.015Y-3.2972
X4.115Y-3.1972
X4.115Y-3.2972
X4.215Y-3.1972
X4.215Y-3.2972
X4.315Y-3.1972
X4.315Y-3.2972
X4.415Y-3.1972
X4.415Y-3.2972
X4.515Y-3.1972
X4.515Y-3.2972
X4.615Y-3.1972
X4.615Y-3.2972
X4.715Y-3.1972
X4.715Y-3.2972
X4.815Y-3.1972
X4.815Y-3.2972
X4.915Y-3.1972
X4.915Y-3.2972
X5.015Y-3.1972
X5.015Y-3.2972
X5.115Y-3.1972
X5.115Y-3.2972
X5.215Y-3.1972
X5.215Y-3.2972
X5.315Y-3.1972
X5.315Y-3.2972
X5.49Y-3.16
X5.59Y-3.16
X5.69Y-3.16
X5.79Y-3.16
X5.89Y-3.16
X5.9892Y-0.7874
X6.04Y-3.16
X6.0892Y-0.7874
X6.14Y-3.16
X6.1892Y-0.7874
X6.24Y-3.16
X6.2892Y-0.7874
X6.3892Y-0.7874
X6.4892Y-0.7874
X6.5892Y-0.7874
X6.6892Y-0.7874
T6
X0.1181Y-0.1181
X0.1181Y-4.1339
X7.0079Y-0.1181
X7.0079Y-4.1339
T0
M30
