PCBNEW-LibModule-V1  2021-08-24 19:03:53
# encoding utf-8
Units mm
$INDEX
045138008100858
$EndINDEX
$MODULE 045138008100858
Po 0 0 0 15 61253489 00000000 ~~
Li 045138008100858
Cd 045138008100858+-2
Kw Connector
Sc 0
At SMD
AR 
Op 0 0 0
T0 0.000 -0 1.27 1.27 0 0.254 N V 21 N "J**"
T1 0.000 -0 1.27 1.27 0 0.254 N I 21 N "045138008100858"
DS -7.15 -8.15 7.15 -8.15 0.2 24
DS 7.15 -8.15 7.15 7.85 0.2 24
DS 7.15 7.85 -7.15 7.85 0.2 24
DS -7.15 7.85 -7.15 -8.15 0.2 24
DS -8.93 -9.15 8.93 -9.15 0.1 24
DS 8.93 -9.15 8.93 9.15 0.1 24
DS 8.93 9.15 -8.93 9.15 0.1 24
DS -8.93 9.15 -8.93 -9.15 0.1 24
DS -2.97 7.85 -7.15 7.85 0.1 21
DS -7.15 7.85 -7.15 4.85 0.1 21
DS 7.15 6.35 7.15 2.85 0.1 21
DS -7.15 -7.15 -7.15 -8.15 0.1 21
DS -7.15 -8.15 7.15 -8.15 0.1 21
DS 7.15 -8.15 7.15 -7.15 0.1 21
DS 7.15 6.35 7.15 7.85 0.1 21
DS -2.37 8.55 -2.37 8.55 0.2 21
DS -2.17 8.55 -2.17 8.55 0.2 21
DA -2.27 8.55 -2.370 8.55 -1800 0.2 21
DA -2.27 8.55 -2.170 8.55 -1800 0.2 21
$PAD
Po -2.270 7.55
Sh "1" R 0.800 1.200 0 0 0
At SMD N 00888000
Ne 0 ""
$EndPAD
$PAD
Po -1.170 7.55
Sh "2" R 0.800 1.200 0 0 0
At SMD N 00888000
Ne 0 ""
$EndPAD
$PAD
Po -0.070 7.55
Sh "3" R 0.800 1.200 0 0 0
At SMD N 00888000
Ne 0 ""
$EndPAD
$PAD
Po 1.030 7.55
Sh "4" R 0.800 1.200 0 0 0
At SMD N 00888000
Ne 0 ""
$EndPAD
$PAD
Po 2.130 7.55
Sh "5" R 0.800 1.200 0 0 0
At SMD N 00888000
Ne 0 ""
$EndPAD
$PAD
Po 3.230 7.55
Sh "6" R 0.800 1.200 0 0 0
At SMD N 00888000
Ne 0 ""
$EndPAD
$PAD
Po 4.330 7.55
Sh "7" R 0.800 1.200 0 0 0
At SMD N 00888000
Ne 0 ""
$EndPAD
$PAD
Po 5.430 7.55
Sh "8" R 0.800 1.200 0 0 0
At SMD N 00888000
Ne 0 ""
$EndPAD
$PAD
Po 6.430 7.55
Sh "9" R 0.800 1.200 0 0 0
At SMD N 00888000
Ne 0 ""
$EndPAD
$PAD
Po -7.280 3.19
Sh "10" R 1.300 2.500 0 0 0
At SMD N 00888000
Ne 0 ""
$EndPAD
$PAD
Po -7.280 -5.31
Sh "11" R 1.300 2.500 0 0 0
At SMD N 00888000
Ne 0 ""
$EndPAD
$PAD
Po 7.280 -5.31
Sh "12" R 1.300 2.500 0 0 0
At SMD N 00888000
Ne 0 ""
$EndPAD
$PAD
Po 7.280 1.7
Sh "13" R 1.300 1.700 0 0 0
At SMD N 00888000
Ne 0 ""
$EndPAD
$PAD
Po 7.080 0.1
Sh "CD1" R 1.000 1.700 0 0 900
At SMD N 00888000
Ne 0 ""
$EndPAD
$EndMODULE 045138008100858
$EndLIBRARY
